M48
; DRILL file {KiCad (5.1.10)-1} date 08/07/21 13:38:05
; FORMAT={-:-/ absolute / inch / decimal}
; #@! TF.CreationDate,2021-08-07T13:38:05-04:00
; #@! TF.GenerationSoftware,Kicad,Pcbnew,(5.1.10)-1
; #@! TF.FileFunction,Plated,1,2,PTH
FMAT,2
INCH
T1C0.0157
T2C0.0276
T3C0.0354
T4C0.0394
%
G90
G05
T1
X5.1464Y-2.7583
X5.2299Y-2.7591
X5.3153Y-2.7584
X5.4187Y-2.7597
X5.4833Y-2.7584
X5.5866Y-2.7583
X5.6496Y-2.759
X5.8183Y-2.7588
X5.8997Y-2.7587
X5.9642Y-2.7597
X6.0822Y-2.6631
X6.364Y-2.7375
X6.4236Y-2.7433
T2
X4.1634Y-2.4508
X4.1732Y-1.7028
T3
X4.6063Y-1.7028
X4.7063Y-1.7028
X5.3248Y-1.7028
X5.4248Y-1.7028
X6.0236Y-1.7028
X6.1236Y-1.7028
T4
X5.1437Y-1.8799
X5.2437Y-1.8799
X5.3437Y-1.8799
X5.4437Y-1.8799
X5.5437Y-1.8799
X5.5437Y-2.0472
X5.6437Y-1.8799
X5.6437Y-2.0472
X5.7437Y-1.8799
X5.7437Y-2.0472
X5.8437Y-1.8799
X5.8437Y-2.0472
X5.9437Y-1.8799
X5.9437Y-2.0472
X6.0437Y-1.8799
X6.0437Y-2.0472
X6.1437Y-1.8799
X6.1437Y-2.0472
X6.2437Y-1.8799
X6.2437Y-2.0472
X6.3437Y-1.6634
X6.3437Y-1.8799
X6.3437Y-2.0472
X6.4437Y-1.6634
X6.4437Y-1.8799
X6.4437Y-2.0472
X6.5437Y-1.6634
X6.5437Y-1.8799
X6.5437Y-2.0472
X6.6437Y-1.6634
X6.6437Y-1.8799
X6.6437Y-2.0472
T0
M30
